Exercise_Single_Var
…
summary(diamonds$price)

##    Min. 1st Qu.  Median    Mean 3rd Qu.    Max. 
##     326     950    2401    3933    5324   18823

4.

# How many diamonds cost less than $500?
subset(diamonds, price < 500)

## # A tibble: 1,729 x 10
##    carat       cut color clarity depth table price     x     y     z
##    <dbl>     <ord> <ord>   <ord> <dbl> <dbl> <int> <dbl> <dbl> <dbl>
##  1  0.23     Ideal     E     SI2  61.5    55   326  3.95  3.98  2.43
##  2  0.21   Premium     E     SI1  59.8    61   326  3.89  3.84  2.31
##  3  0.23      Good     E     VS1  56.9    65   327  4.05  4.07  2.31
##  4  0.29   Premium     I     VS2  62.4    58   334  4.20  4.23  2.63
##  5  0.31      Good     J     SI2  63.3    58   335  4.34  4.35  2.75
##  6  0.24 Very Good     J    VVS2  62.8    57   336  3.94  3.96  2.48
##  7  0.24 Very Good     I    VVS1  62.3    57   336  3.95  3.98  2.47
##  8  0.26 Very Good     H     SI1  61.9    55   337  4.07  4.11  2.53
##  9  0.22      Fair     E     VS2  65.1    61   337  3.87  3.78  2.49
## 10  0.23 Very Good     H     VS1  59.4    61   338  4.00  4.05  2.39
## # ... with 1,719 more rows

# How many diamonds cost less than $250?
subset(diamonds, price < 250)

## # A tibble: 0 x 10
## # ... with 10 variables: carat <dbl>, cut <ord>, color <ord>,
## #   clarity <ord>, depth <dbl>, table <dbl>, price <int>, x <dbl>,
## #   y <dbl>, z <dbl>

# How many diamonds cost $15000 or more?
subset(diamonds, price >= 15000)

## # A tibble: 1,656 x 10
##    carat       cut color clarity depth table price     x     y     z
##    <dbl>     <ord> <ord>   <ord> <dbl> <dbl> <int> <dbl> <dbl> <dbl>
##  1  1.60     Ideal     G     VS2  61.9    56 15000  7.53  7.47  4.64
##  2  1.54   Premium     E     VS2  62.3    58 15002  7.31  7.39  4.58
##  3  1.19     Ideal     F    VVS1  61.5    55 15005  6.82  6.84  4.20
##  4  2.10   Premium     I     SI1  61.5    57 15007  8.25  8.21  5.06
##  5  1.69     Ideal     D     SI1  60.8    57 15011  7.69  7.71  4.68
##  6  1.50 Very Good     G    VVS2  62.9    56 15013  7.22  7.32  4.57
##  7  1.73 Very Good     G     VS1  62.8    57 15014  7.57  7.72  4.80
##  8  2.02   Premium     G     SI2  63.0    59 15014  8.05  7.95  5.03
##  9  2.05 Very Good     F     SI2  61.9    56 15017  8.13  8.18  5.05
## 10  1.50 Very Good     F     VS1  61.6    58 15022  7.35  7.43  4.55
## # ... with 1,646 more rows
…
